com\test\pages\AddUser.class
com\test\panels\Header.class
com\test\pages\DashboardPage.class
com\test\pages\LoginPage.class
com\test\pages\MyInfoPanel.class
com\test\pages\UploadImagePage.class
com\test\pages\AdminPage.class
com\test\util\MainRunner.class
com\test\MainTest.class
